(module DIP254P1524X635-40 (layer F.Cu) (tedit 0)
  (fp_text reference DIP254P1524X635-40 (at -8.01592 -52.4471) (layer F.SilkS)
    (effects (font (size 1.64306 1.64306) (thickness 0.05)))
  )
  (fp_text value VAL** (at -7.71772 3.79519) (layer F.SilkS)
    (effects (font (size 1.64459 1.64459) (thickness 0.05)))
  )
  (fp_arc (start -7.62 -50.7492) (end -7.9248 -50.7492) (angle -180) (layer Dwgs.User) (width 0))
  (fp_line (start -14.986 -50.7492) (end -14.986 2.4892) (layer Dwgs.User) (width 0.1524))
  (fp_line (start -7.9248 -50.7492) (end -14.986 -50.7492) (layer Dwgs.User) (width 0.1524))
  (fp_line (start -7.3152 -50.7492) (end -7.9248 -50.7492) (layer Dwgs.User) (width 0.1524))
  (fp_line (start -0.254 -50.7492) (end -7.3152 -50.7492) (layer Dwgs.User) (width 0.1524))
  (fp_line (start -0.254 2.4892) (end -0.254 -50.7492) (layer Dwgs.User) (width 0.1524))
  (fp_line (start -14.986 2.4892) (end -0.254 2.4892) (layer Dwgs.User) (width 0.1524))
  (fp_line (start 0.4826 -48.768) (end -0.254 -48.768) (layer Dwgs.User) (width 0.1524))
  (fp_line (start 0.4826 -47.752) (end 0.4826 -48.768) (layer Dwgs.User) (width 0.1524))
  (fp_line (start -0.254 -47.752) (end 0.4826 -47.752) (layer Dwgs.User) (width 0.1524))
  (fp_line (start -0.254 -48.768) (end -0.254 -47.752) (layer Dwgs.User) (width 0.1524))
  (fp_line (start 0.4826 -46.228) (end -0.254 -46.228) (layer Dwgs.User) (width 0.1524))
  (fp_line (start 0.4826 -45.212) (end 0.4826 -46.228) (layer Dwgs.User) (width 0.1524))
  (fp_line (start -0.254 -45.212) (end 0.4826 -45.212) (layer Dwgs.User) (width 0.1524))
  (fp_line (start -0.254 -46.228) (end -0.254 -45.212) (layer Dwgs.User) (width 0.1524))
  (fp_line (start 0.4826 -43.688) (end -0.254 -43.688) (layer Dwgs.User) (width 0.1524))
  (fp_line (start 0.4826 -42.672) (end 0.4826 -43.688) (layer Dwgs.User) (width 0.1524))
  (fp_line (start -0.254 -42.672) (end 0.4826 -42.672) (layer Dwgs.User) (width 0.1524))
  (fp_line (start -0.254 -43.688) (end -0.254 -42.672) (layer Dwgs.User) (width 0.1524))
  (fp_line (start 0.4826 -41.148) (end -0.254 -41.148) (layer Dwgs.User) (width 0.1524))
  (fp_line (start 0.4826 -40.132) (end 0.4826 -41.148) (layer Dwgs.User) (width 0.1524))
  (fp_line (start -0.254 -40.132) (end 0.4826 -40.132) (layer Dwgs.User) (width 0.1524))
  (fp_line (start -0.254 -41.148) (end -0.254 -40.132) (layer Dwgs.User) (width 0.1524))
  (fp_line (start 0.4826 -38.608) (end -0.254 -38.608) (layer Dwgs.User) (width 0.1524))
  (fp_line (start 0.4826 -37.592) (end 0.4826 -38.608) (layer Dwgs.User) (width 0.1524))
  (fp_line (start -0.254 -37.592) (end 0.4826 -37.592) (layer Dwgs.User) (width 0.1524))
  (fp_line (start -0.254 -38.608) (end -0.254 -37.592) (layer Dwgs.User) (width 0.1524))
  (fp_line (start 0.4826 -36.068) (end -0.254 -36.068) (layer Dwgs.User) (width 0.1524))
  (fp_line (start 0.4826 -35.052) (end 0.4826 -36.068) (layer Dwgs.User) (width 0.1524))
  (fp_line (start -0.254 -35.052) (end 0.4826 -35.052) (layer Dwgs.User) (width 0.1524))
  (fp_line (start -0.254 -36.068) (end -0.254 -35.052) (layer Dwgs.User) (width 0.1524))
  (fp_line (start 0.4826 -33.528) (end -0.254 -33.528) (layer Dwgs.User) (width 0.1524))
  (fp_line (start 0.4826 -32.512) (end 0.4826 -33.528) (layer Dwgs.User) (width 0.1524))
  (fp_line (start -0.254 -32.512) (end 0.4826 -32.512) (layer Dwgs.User) (width 0.1524))
  (fp_line (start -0.254 -33.528) (end -0.254 -32.512) (layer Dwgs.User) (width 0.1524))
  (fp_line (start 0.4826 -30.988) (end -0.254 -30.988) (layer Dwgs.User) (width 0.1524))
  (fp_line (start 0.4826 -29.972) (end 0.4826 -30.988) (layer Dwgs.User) (width 0.1524))
  (fp_line (start -0.254 -29.972) (end 0.4826 -29.972) (layer Dwgs.User) (width 0.1524))
  (fp_line (start -0.254 -30.988) (end -0.254 -29.972) (layer Dwgs.User) (width 0.1524))
  (fp_line (start 0.4826 -28.448) (end -0.254 -28.448) (layer Dwgs.User) (width 0.1524))
  (fp_line (start 0.4826 -27.432) (end 0.4826 -28.448) (layer Dwgs.User) (width 0.1524))
  (fp_line (start -0.254 -27.432) (end 0.4826 -27.432) (layer Dwgs.User) (width 0.1524))
  (fp_line (start -0.254 -28.448) (end -0.254 -27.432) (layer Dwgs.User) (width 0.1524))
  (fp_line (start 0.4826 -25.908) (end -0.254 -25.908) (layer Dwgs.User) (width 0.1524))
  (fp_line (start 0.4826 -24.892) (end 0.4826 -25.908) (layer Dwgs.User) (width 0.1524))
  (fp_line (start -0.254 -24.892) (end 0.4826 -24.892) (layer Dwgs.User) (width 0.1524))
  (fp_line (start -0.254 -25.908) (end -0.254 -24.892) (layer Dwgs.User) (width 0.1524))
  (fp_line (start 0.4826 -23.368) (end -0.254 -23.368) (layer Dwgs.User) (width 0.1524))
  (fp_line (start 0.4826 -22.352) (end 0.4826 -23.368) (layer Dwgs.User) (width 0.1524))
  (fp_line (start -0.254 -22.352) (end 0.4826 -22.352) (layer Dwgs.User) (width 0.1524))
  (fp_line (start -0.254 -23.368) (end -0.254 -22.352) (layer Dwgs.User) (width 0.1524))
  (fp_line (start 0.4826 -20.828) (end -0.254 -20.828) (layer Dwgs.User) (width 0.1524))
  (fp_line (start 0.4826 -19.812) (end 0.4826 -20.828) (layer Dwgs.User) (width 0.1524))
  (fp_line (start -0.254 -19.812) (end 0.4826 -19.812) (layer Dwgs.User) (width 0.1524))
  (fp_line (start -0.254 -20.828) (end -0.254 -19.812) (layer Dwgs.User) (width 0.1524))
  (fp_line (start 0.4826 -18.288) (end -0.254 -18.288) (layer Dwgs.User) (width 0.1524))
  (fp_line (start 0.4826 -17.272) (end 0.4826 -18.288) (layer Dwgs.User) (width 0.1524))
  (fp_line (start -0.254 -17.272) (end 0.4826 -17.272) (layer Dwgs.User) (width 0.1524))
  (fp_line (start -0.254 -18.288) (end -0.254 -17.272) (layer Dwgs.User) (width 0.1524))
  (fp_line (start 0.4826 -15.748) (end -0.254 -15.748) (layer Dwgs.User) (width 0.1524))
  (fp_line (start 0.4826 -14.732) (end 0.4826 -15.748) (layer Dwgs.User) (width 0.1524))
  (fp_line (start -0.254 -14.732) (end 0.4826 -14.732) (layer Dwgs.User) (width 0.1524))
  (fp_line (start -0.254 -15.748) (end -0.254 -14.732) (layer Dwgs.User) (width 0.1524))
  (fp_line (start 0.4826 -13.208) (end -0.254 -13.208) (layer Dwgs.User) (width 0.1524))
  (fp_line (start 0.4826 -12.192) (end 0.4826 -13.208) (layer Dwgs.User) (width 0.1524))
  (fp_line (start -0.254 -12.192) (end 0.4826 -12.192) (layer Dwgs.User) (width 0.1524))
  (fp_line (start -0.254 -13.208) (end -0.254 -12.192) (layer Dwgs.User) (width 0.1524))
  (fp_line (start 0.4826 -10.668) (end -0.254 -10.668) (layer Dwgs.User) (width 0.1524))
  (fp_line (start 0.4826 -9.652) (end 0.4826 -10.668) (layer Dwgs.User) (width 0.1524))
  (fp_line (start -0.254 -9.652) (end 0.4826 -9.652) (layer Dwgs.User) (width 0.1524))
  (fp_line (start -0.254 -10.668) (end -0.254 -9.652) (layer Dwgs.User) (width 0.1524))
  (fp_line (start 0.4826 -8.128) (end -0.254 -8.128) (layer Dwgs.User) (width 0.1524))
  (fp_line (start 0.4826 -7.112) (end 0.4826 -8.128) (layer Dwgs.User) (width 0.1524))
  (fp_line (start -0.254 -7.112) (end 0.4826 -7.112) (layer Dwgs.User) (width 0.1524))
  (fp_line (start -0.254 -8.128) (end -0.254 -7.112) (layer Dwgs.User) (width 0.1524))
  (fp_line (start 0.4826 -5.588) (end -0.254 -5.588) (layer Dwgs.User) (width 0.1524))
  (fp_line (start 0.508 -4.572) (end 0.4826 -5.588) (layer Dwgs.User) (width 0.1524))
  (fp_line (start -0.254 -4.572) (end 0.508 -4.572) (layer Dwgs.User) (width 0.1524))
  (fp_line (start -0.254 -5.588) (end -0.254 -4.572) (layer Dwgs.User) (width 0.1524))
  (fp_line (start 0.4826 -3.048) (end -0.254 -3.048) (layer Dwgs.User) (width 0.1524))
  (fp_line (start 0.508 -2.0574) (end 0.4826 -3.048) (layer Dwgs.User) (width 0.1524))
  (fp_line (start -0.254 -2.032) (end 0.508 -2.0574) (layer Dwgs.User) (width 0.1524))
  (fp_line (start -0.254 -3.048) (end -0.254 -2.032) (layer Dwgs.User) (width 0.1524))
  (fp_line (start 0.508 -0.508) (end -0.254 -0.508) (layer Dwgs.User) (width 0.1524))
  (fp_line (start 0.508 0.4826) (end 0.508 -0.508) (layer Dwgs.User) (width 0.1524))
  (fp_line (start -0.254 0.508) (end 0.508 0.4826) (layer Dwgs.User) (width 0.1524))
  (fp_line (start -0.254 -0.508) (end -0.254 0.508) (layer Dwgs.User) (width 0.1524))
  (fp_line (start -15.7226 0.508) (end -14.986 0.508) (layer Dwgs.User) (width 0.1524))
  (fp_line (start -15.7226 -0.508) (end -15.7226 0.508) (layer Dwgs.User) (width 0.1524))
  (fp_line (start -14.986 -0.508) (end -15.7226 -0.508) (layer Dwgs.User) (width 0.1524))
  (fp_line (start -14.986 0.508) (end -14.986 -0.508) (layer Dwgs.User) (width 0.1524))
  (fp_line (start -15.7226 -2.032) (end -14.986 -2.032) (layer Dwgs.User) (width 0.1524))
  (fp_line (start -15.7226 -3.048) (end -15.7226 -2.032) (layer Dwgs.User) (width 0.1524))
  (fp_line (start -14.986 -3.048) (end -15.7226 -3.048) (layer Dwgs.User) (width 0.1524))
  (fp_line (start -14.986 -2.032) (end -14.986 -3.048) (layer Dwgs.User) (width 0.1524))
  (fp_line (start -15.7226 -4.572) (end -14.986 -4.572) (layer Dwgs.User) (width 0.1524))
  (fp_line (start -15.7226 -5.588) (end -15.7226 -4.572) (layer Dwgs.User) (width 0.1524))
  (fp_line (start -14.986 -5.588) (end -15.7226 -5.588) (layer Dwgs.User) (width 0.1524))
  (fp_line (start -14.986 -4.572) (end -14.986 -5.588) (layer Dwgs.User) (width 0.1524))
  (fp_line (start -15.7226 -7.112) (end -14.986 -7.112) (layer Dwgs.User) (width 0.1524))
  (fp_line (start -15.7226 -8.128) (end -15.7226 -7.112) (layer Dwgs.User) (width 0.1524))
  (fp_line (start -14.986 -8.128) (end -15.7226 -8.128) (layer Dwgs.User) (width 0.1524))
  (fp_line (start -14.986 -7.112) (end -14.986 -8.128) (layer Dwgs.User) (width 0.1524))
  (fp_line (start -15.7226 -9.652) (end -14.986 -9.652) (layer Dwgs.User) (width 0.1524))
  (fp_line (start -15.7226 -10.668) (end -15.7226 -9.652) (layer Dwgs.User) (width 0.1524))
  (fp_line (start -14.986 -10.668) (end -15.7226 -10.668) (layer Dwgs.User) (width 0.1524))
  (fp_line (start -14.986 -9.652) (end -14.986 -10.668) (layer Dwgs.User) (width 0.1524))
  (fp_line (start -15.7226 -12.192) (end -14.986 -12.192) (layer Dwgs.User) (width 0.1524))
  (fp_line (start -15.7226 -13.208) (end -15.7226 -12.192) (layer Dwgs.User) (width 0.1524))
  (fp_line (start -14.986 -13.208) (end -15.7226 -13.208) (layer Dwgs.User) (width 0.1524))
  (fp_line (start -14.986 -12.192) (end -14.986 -13.208) (layer Dwgs.User) (width 0.1524))
  (fp_line (start -15.7226 -14.732) (end -14.986 -14.732) (layer Dwgs.User) (width 0.1524))
  (fp_line (start -15.7226 -15.748) (end -15.7226 -14.732) (layer Dwgs.User) (width 0.1524))
  (fp_line (start -14.986 -15.748) (end -15.7226 -15.748) (layer Dwgs.User) (width 0.1524))
  (fp_line (start -14.986 -14.732) (end -14.986 -15.748) (layer Dwgs.User) (width 0.1524))
  (fp_line (start -15.7226 -17.272) (end -14.986 -17.272) (layer Dwgs.User) (width 0.1524))
  (fp_line (start -15.7226 -18.288) (end -15.7226 -17.272) (layer Dwgs.User) (width 0.1524))
  (fp_line (start -14.986 -18.288) (end -15.7226 -18.288) (layer Dwgs.User) (width 0.1524))
  (fp_line (start -14.986 -17.272) (end -14.986 -18.288) (layer Dwgs.User) (width 0.1524))
  (fp_line (start -15.7226 -19.812) (end -14.986 -19.812) (layer Dwgs.User) (width 0.1524))
  (fp_line (start -15.7226 -20.828) (end -15.7226 -19.812) (layer Dwgs.User) (width 0.1524))
  (fp_line (start -14.986 -20.828) (end -15.7226 -20.828) (layer Dwgs.User) (width 0.1524))
  (fp_line (start -14.986 -19.812) (end -14.986 -20.828) (layer Dwgs.User) (width 0.1524))
  (fp_line (start -15.7226 -22.352) (end -14.986 -22.352) (layer Dwgs.User) (width 0.1524))
  (fp_line (start -15.7226 -23.368) (end -15.7226 -22.352) (layer Dwgs.User) (width 0.1524))
  (fp_line (start -14.986 -23.368) (end -15.7226 -23.368) (layer Dwgs.User) (width 0.1524))
  (fp_line (start -14.986 -22.352) (end -14.986 -23.368) (layer Dwgs.User) (width 0.1524))
  (fp_line (start -15.7226 -24.892) (end -14.986 -24.892) (layer Dwgs.User) (width 0.1524))
  (fp_line (start -15.748 -25.908) (end -15.7226 -24.892) (layer Dwgs.User) (width 0.1524))
  (fp_line (start -14.986 -25.908) (end -15.748 -25.908) (layer Dwgs.User) (width 0.1524))
  (fp_line (start -14.986 -24.892) (end -14.986 -25.908) (layer Dwgs.User) (width 0.1524))
  (fp_line (start -15.7226 -27.432) (end -14.986 -27.432) (layer Dwgs.User) (width 0.1524))
  (fp_line (start -15.748 -28.448) (end -15.7226 -27.432) (layer Dwgs.User) (width 0.1524))
  (fp_line (start -14.986 -28.448) (end -15.748 -28.448) (layer Dwgs.User) (width 0.1524))
  (fp_line (start -14.986 -27.432) (end -14.986 -28.448) (layer Dwgs.User) (width 0.1524))
  (fp_line (start -15.748 -29.972) (end -14.986 -29.972) (layer Dwgs.User) (width 0.1524))
  (fp_line (start -15.748 -30.988) (end -15.748 -29.972) (layer Dwgs.User) (width 0.1524))
  (fp_line (start -14.986 -30.988) (end -15.748 -30.988) (layer Dwgs.User) (width 0.1524))
  (fp_line (start -14.986 -29.972) (end -14.986 -30.988) (layer Dwgs.User) (width 0.1524))
  (fp_line (start -15.748 -32.512) (end -14.986 -32.512) (layer Dwgs.User) (width 0.1524))
  (fp_line (start -15.748 -33.528) (end -15.748 -32.512) (layer Dwgs.User) (width 0.1524))
  (fp_line (start -14.986 -33.528) (end -15.748 -33.528) (layer Dwgs.User) (width 0.1524))
  (fp_line (start -14.986 -32.512) (end -14.986 -33.528) (layer Dwgs.User) (width 0.1524))
  (fp_line (start -15.748 -35.052) (end -14.986 -35.052) (layer Dwgs.User) (width 0.1524))
  (fp_line (start -15.748 -36.068) (end -15.748 -35.052) (layer Dwgs.User) (width 0.1524))
  (fp_line (start -14.986 -36.068) (end -15.748 -36.068) (layer Dwgs.User) (width 0.1524))
  (fp_line (start -14.986 -35.052) (end -14.986 -36.068) (layer Dwgs.User) (width 0.1524))
  (fp_line (start -15.748 -37.592) (end -14.986 -37.592) (layer Dwgs.User) (width 0.1524))
  (fp_line (start -15.748 -38.608) (end -15.748 -37.592) (layer Dwgs.User) (width 0.1524))
  (fp_line (start -14.986 -38.608) (end -15.748 -38.608) (layer Dwgs.User) (width 0.1524))
  (fp_line (start -14.986 -37.592) (end -14.986 -38.608) (layer Dwgs.User) (width 0.1524))
  (fp_line (start -15.748 -40.132) (end -14.986 -40.132) (layer Dwgs.User) (width 0.1524))
  (fp_line (start -15.748 -41.148) (end -15.748 -40.132) (layer Dwgs.User) (width 0.1524))
  (fp_line (start -14.986 -41.148) (end -15.748 -41.148) (layer Dwgs.User) (width 0.1524))
  (fp_line (start -14.986 -40.132) (end -14.986 -41.148) (layer Dwgs.User) (width 0.1524))
  (fp_line (start -15.748 -42.672) (end -14.986 -42.672) (layer Dwgs.User) (width 0.1524))
  (fp_line (start -15.748 -43.688) (end -15.748 -42.672) (layer Dwgs.User) (width 0.1524))
  (fp_line (start -14.986 -43.688) (end -15.748 -43.688) (layer Dwgs.User) (width 0.1524))
  (fp_line (start -14.986 -42.672) (end -14.986 -43.688) (layer Dwgs.User) (width 0.1524))
  (fp_line (start -15.748 -45.212) (end -14.986 -45.212) (layer Dwgs.User) (width 0.1524))
  (fp_line (start -15.748 -46.228) (end -15.748 -45.212) (layer Dwgs.User) (width 0.1524))
  (fp_line (start -14.986 -46.228) (end -15.748 -46.228) (layer Dwgs.User) (width 0.1524))
  (fp_line (start -14.986 -45.212) (end -14.986 -46.228) (layer Dwgs.User) (width 0.1524))
  (fp_line (start -15.748 -47.752) (end -14.986 -47.752) (layer Dwgs.User) (width 0.1524))
  (fp_line (start -15.748 -48.768) (end -15.748 -47.752) (layer Dwgs.User) (width 0.1524))
  (fp_line (start -14.986 -48.768) (end -15.748 -48.768) (layer Dwgs.User) (width 0.1524))
  (fp_line (start -14.986 -47.752) (end -14.986 -48.768) (layer Dwgs.User) (width 0.1524))
  (fp_arc (start -7.62 -50.7492) (end -7.9248 -50.7492) (angle -180) (layer F.SilkS) (width 0))
  (fp_line (start -14.986 1.0414) (end -14.986 2.4892) (layer F.SilkS) (width 0.1524))
  (fp_line (start -14.986 -50.7492) (end -14.986 -49.3522) (layer F.SilkS) (width 0.1524))
  (fp_line (start -7.9248 -50.7492) (end -14.986 -50.7492) (layer F.SilkS) (width 0.1524))
  (fp_line (start -7.3152 -50.7492) (end -7.9248 -50.7492) (layer F.SilkS) (width 0.1524))
  (fp_line (start -0.254 -50.7492) (end -7.3152 -50.7492) (layer F.SilkS) (width 0.1524))
  (fp_line (start -0.254 2.4892) (end -0.254 1.0414) (layer F.SilkS) (width 0.1524))
  (fp_line (start -14.986 2.4892) (end -0.254 2.4892) (layer F.SilkS) (width 0.1524))
  (fp_line (start -0.254 -49.3014) (end -0.254 -50.7492) (layer F.SilkS) (width 0.1524))
  (pad 40 thru_hole circle (at 0 -48.26) (size 1.4986 1.4986) (drill 0.9906) (layers *.Cu *.Mask))
  (pad 39 thru_hole circle (at 0 -45.72) (size 1.4986 1.4986) (drill 0.9906) (layers *.Cu *.Mask))
  (pad 38 thru_hole circle (at 0 -43.18) (size 1.4986 1.4986) (drill 0.9906) (layers *.Cu *.Mask))
  (pad 37 thru_hole circle (at 0 -40.64) (size 1.4986 1.4986) (drill 0.9906) (layers *.Cu *.Mask))
  (pad 36 thru_hole circle (at 0 -38.1) (size 1.4986 1.4986) (drill 0.9906) (layers *.Cu *.Mask))
  (pad 35 thru_hole circle (at 0 -35.56) (size 1.4986 1.4986) (drill 0.9906) (layers *.Cu *.Mask))
  (pad 34 thru_hole circle (at 0 -33.02) (size 1.4986 1.4986) (drill 0.9906) (layers *.Cu *.Mask))
  (pad 33 thru_hole circle (at 0 -30.48) (size 1.4986 1.4986) (drill 0.9906) (layers *.Cu *.Mask))
  (pad 32 thru_hole circle (at 0 -27.94) (size 1.4986 1.4986) (drill 0.9906) (layers *.Cu *.Mask))
  (pad 31 thru_hole circle (at 0 -25.4) (size 1.4986 1.4986) (drill 0.9906) (layers *.Cu *.Mask))
  (pad 30 thru_hole circle (at 0 -22.86) (size 1.4986 1.4986) (drill 0.9906) (layers *.Cu *.Mask))
  (pad 29 thru_hole circle (at 0 -20.32) (size 1.4986 1.4986) (drill 0.9906) (layers *.Cu *.Mask))
  (pad 28 thru_hole circle (at 0 -17.78) (size 1.4986 1.4986) (drill 0.9906) (layers *.Cu *.Mask))
  (pad 27 thru_hole circle (at 0 -15.24) (size 1.4986 1.4986) (drill 0.9906) (layers *.Cu *.Mask))
  (pad 26 thru_hole circle (at 0 -12.7) (size 1.4986 1.4986) (drill 0.9906) (layers *.Cu *.Mask))
  (pad 25 thru_hole circle (at 0 -10.16) (size 1.4986 1.4986) (drill 0.9906) (layers *.Cu *.Mask))
  (pad 24 thru_hole circle (at 0 -7.62) (size 1.4986 1.4986) (drill 0.9906) (layers *.Cu *.Mask))
  (pad 23 thru_hole circle (at 0 -5.08) (size 1.4986 1.4986) (drill 0.9906) (layers *.Cu *.Mask))
  (pad 22 thru_hole circle (at 0 -2.54) (size 1.4986 1.4986) (drill 0.9906) (layers *.Cu *.Mask))
  (pad 21 thru_hole circle (at 0 0) (size 1.4986 1.4986) (drill 0.9906) (layers *.Cu *.Mask))
  (pad 20 thru_hole circle (at -15.24 0) (size 1.4986 1.4986) (drill 0.9906) (layers *.Cu *.Mask))
  (pad 19 thru_hole circle (at -15.24 -2.54) (size 1.4986 1.4986) (drill 0.9906) (layers *.Cu *.Mask))
  (pad 18 thru_hole circle (at -15.24 -5.08) (size 1.4986 1.4986) (drill 0.9906) (layers *.Cu *.Mask))
  (pad 17 thru_hole circle (at -15.24 -7.62) (size 1.4986 1.4986) (drill 0.9906) (layers *.Cu *.Mask))
  (pad 16 thru_hole circle (at -15.24 -10.16) (size 1.4986 1.4986) (drill 0.9906) (layers *.Cu *.Mask))
  (pad 15 thru_hole circle (at -15.24 -12.7) (size 1.4986 1.4986) (drill 0.9906) (layers *.Cu *.Mask))
  (pad 14 thru_hole circle (at -15.24 -15.24) (size 1.4986 1.4986) (drill 0.9906) (layers *.Cu *.Mask))
  (pad 13 thru_hole circle (at -15.24 -17.78) (size 1.4986 1.4986) (drill 0.9906) (layers *.Cu *.Mask))
  (pad 12 thru_hole circle (at -15.24 -20.32) (size 1.4986 1.4986) (drill 0.9906) (layers *.Cu *.Mask))
  (pad 11 thru_hole circle (at -15.24 -22.86) (size 1.4986 1.4986) (drill 0.9906) (layers *.Cu *.Mask))
  (pad 10 thru_hole circle (at -15.24 -25.4) (size 1.4986 1.4986) (drill 0.9906) (layers *.Cu *.Mask))
  (pad 9 thru_hole circle (at -15.24 -27.94) (size 1.4986 1.4986) (drill 0.9906) (layers *.Cu *.Mask))
  (pad 8 thru_hole circle (at -15.24 -30.48) (size 1.4986 1.4986) (drill 0.9906) (layers *.Cu *.Mask))
  (pad 7 thru_hole circle (at -15.24 -33.02) (size 1.4986 1.4986) (drill 0.9906) (layers *.Cu *.Mask))
  (pad 6 thru_hole circle (at -15.24 -35.56) (size 1.4986 1.4986) (drill 0.9906) (layers *.Cu *.Mask))
  (pad 5 thru_hole circle (at -15.24 -38.1) (size 1.4986 1.4986) (drill 0.9906) (layers *.Cu *.Mask))
  (pad 4 thru_hole circle (at -15.24 -40.64) (size 1.4986 1.4986) (drill 0.9906) (layers *.Cu *.Mask))
  (pad 3 thru_hole circle (at -15.24 -43.18) (size 1.4986 1.4986) (drill 0.9906) (layers *.Cu *.Mask))
  (pad 2 thru_hole circle (at -15.24 -45.72) (size 1.4986 1.4986) (drill 0.9906) (layers *.Cu *.Mask))
  (pad 1 thru_hole rect (at -15.24 -48.26) (size 1.4986 1.4986) (drill 0.9906) (layers *.Cu *.Mask))
)
