EESchema Schematic File Version 4
EELAYER 26 0
EELAYER END
$Descr A4 11693 8268
encoding utf-8
Sheet 1 1
Title ""
Date ""
Rev ""
Comp ""
Comment1 ""
Comment2 ""
Comment3 ""
Comment4 ""
$EndDescr
$Comp
L Device:R_POT_TRIM_US RV1
U 1 1 5BC8077C
P 1150 1050
F 0 "RV1" H 1082 1096 50  0000 R CNN
F 1 "R_POT_TRIM_US" H 1082 1005 50  0000 R CNN
F 2 "Potentiometer_THT:Potentiometer_Bourns_3296X_Horizontal" H 1150 1050 50  0001 C CNN
F 3 "~" H 1150 1050 50  0001 C CNN
	1    1150 1050
	1    0    0    -1  
$EndComp
$Comp
L Device:R_POT_TRIM_US RV2
U 1 1 5BC809A8
P 2550 1050
F 0 "RV2" H 2482 1096 50  0000 R CNN
F 1 "R_POT_TRIM_US" H 2482 1005 50  0000 R CNN
F 2 "Potentiometer_THT:Potentiometer_Bourns_3296X_Horizontal" H 2550 1050 50  0001 C CNN
F 3 "~" H 2550 1050 50  0001 C CNN
	1    2550 1050
	1    0    0    -1  
$EndComp
$Comp
L Mechanical:MountingHole H1
U 1 1 5BC80A99
P 1000 2350
F 0 "H1" H 1100 2396 50  0000 L CNN
F 1 "MountingHole" H 1100 2305 50  0000 L CNN
F 2 "MountingHole:MountingHole_3.2mm_M3" H 1000 2350 50  0001 C CNN
F 3 "~" H 1000 2350 50  0001 C CNN
	1    1000 2350
	1    0    0    -1  
$EndComp
$Comp
L Mechanical:MountingHole H2
U 1 1 5BC80B4A
P 1000 2650
F 0 "H2" H 1100 2696 50  0000 L CNN
F 1 "MountingHole" H 1100 2605 50  0000 L CNN
F 2 "MountingHole:MountingHole_3.2mm_M3" H 1000 2650 50  0001 C CNN
F 3 "~" H 1000 2650 50  0001 C CNN
	1    1000 2650
	1    0    0    -1  
$EndComp
$Comp
L power:GND #PWR02
U 1 1 5BC80CC2
P 1150 1250
F 0 "#PWR02" H 1150 1000 50  0001 C CNN
F 1 "GND" H 1155 1077 50  0000 C CNN
F 2 "" H 1150 1250 50  0001 C CNN
F 3 "" H 1150 1250 50  0001 C CNN
	1    1150 1250
	1    0    0    -1  
$EndComp
$Comp
L power:GND #PWR04
U 1 1 5BC80CDC
P 2550 1250
F 0 "#PWR04" H 2550 1000 50  0001 C CNN
F 1 "GND" H 2555 1077 50  0000 C CNN
F 2 "" H 2550 1250 50  0001 C CNN
F 3 "" H 2550 1250 50  0001 C CNN
	1    2550 1250
	1    0    0    -1  
$EndComp
$Comp
L power:VCC #PWR01
U 1 1 5BC80D42
P 1150 850
F 0 "#PWR01" H 1150 700 50  0001 C CNN
F 1 "VCC" H 1167 1023 50  0000 C CNN
F 2 "" H 1150 850 50  0001 C CNN
F 3 "" H 1150 850 50  0001 C CNN
	1    1150 850 
	1    0    0    -1  
$EndComp
$Comp
L power:VCC #PWR03
U 1 1 5BC80D5C
P 2550 850
F 0 "#PWR03" H 2550 700 50  0001 C CNN
F 1 "VCC" H 2567 1023 50  0000 C CNN
F 2 "" H 2550 850 50  0001 C CNN
F 3 "" H 2550 850 50  0001 C CNN
	1    2550 850 
	1    0    0    -1  
$EndComp
Wire Wire Line
	1300 1050 1550 1050
Wire Wire Line
	2700 1050 2950 1050
Wire Wire Line
	1150 900  1150 850 
Wire Wire Line
	2550 900  2550 850 
Wire Wire Line
	2550 1200 2550 1250
Wire Wire Line
	1150 1200 1150 1250
Text Label 1550 1050 2    50   ~ 0
VREF1
Text Label 2950 1050 2    50   ~ 0
VREF2
$Comp
L Connector_Generic:Conn_01x02 J2
U 1 1 5BC810B1
P 3850 1400
F 0 "J2" H 3930 1392 50  0000 L CNN
F 1 "Conn_01x02" H 3930 1301 50  0000 L CNN
F 2 "Connector_PinHeader_2.54mm:PinHeader_1x02_P2.54mm_Vertical" H 3850 1400 50  0001 C CNN
F 3 "~" H 3850 1400 50  0001 C CNN
	1    3850 1400
	1    0    0    -1  
$EndComp
$Comp
L Connector_Generic:Conn_01x02 J1
U 1 1 5BC8110D
P 2500 1850
F 0 "J1" H 2580 1842 50  0000 L CNN
F 1 "Conn_01x02" H 2580 1751 50  0000 L CNN
F 2 "Connector_PinHeader_2.54mm:PinHeader_1x02_P2.54mm_Vertical" H 2500 1850 50  0001 C CNN
F 3 "~" H 2500 1850 50  0001 C CNN
	1    2500 1850
	1    0    0    -1  
$EndComp
Wire Wire Line
	2300 1850 2000 1850
Wire Wire Line
	2300 1950 2000 1950
Text Label 2000 1850 0    50   ~ 0
VREF1
Text Label 2000 1950 0    50   ~ 0
VREF2
Wire Wire Line
	3650 1500 3600 1500
Wire Wire Line
	3650 1400 3600 1400
$Comp
L power:VCC #PWR05
U 1 1 5BC8126E
P 3600 1400
F 0 "#PWR05" H 3600 1250 50  0001 C CNN
F 1 "VCC" H 3617 1573 50  0000 C CNN
F 2 "" H 3600 1400 50  0001 C CNN
F 3 "" H 3600 1400 50  0001 C CNN
	1    3600 1400
	1    0    0    -1  
$EndComp
$Comp
L power:GND #PWR06
U 1 1 5BC812E5
P 3600 1500
F 0 "#PWR06" H 3600 1250 50  0001 C CNN
F 1 "GND" H 3605 1327 50  0000 C CNN
F 2 "" H 3600 1500 50  0001 C CNN
F 3 "" H 3600 1500 50  0001 C CNN
	1    3600 1500
	1    0    0    -1  
$EndComp
$EndSCHEMATC
