EESchema Schematic File Version 4
LIBS:dspic-cache
EELAYER 26 0
EELAYER END
$Descr A4 11693 8268
encoding utf-8
Sheet 1 1
Title ""
Date ""
Rev ""
Comp ""
Comment1 ""
Comment2 ""
Comment3 ""
Comment4 ""
$EndDescr
$Comp
L DSPIC30F4013-20E_P:DSPIC30F4013-20E_P U1
U 1 1 5BBBCE1F
P 3400 3200
F 0 "U1" H 3400 4870 50  0000 C CNN
F 1 "DSPIC30F4013-20E_P" H 3400 4779 50  0000 C CNN
F 2 "DIP254P1524X635-40" H 3400 3200 50  0001 L BNN
F 3 "Unavailable" H 3400 3200 50  0001 L BNN
F 4 "None" H 3400 3200 50  0001 L BNN "Campo4"
F 5 "Microchip" H 3400 3200 50  0001 L BNN "Campo5"
F 6 "DIP-40 Microchip" H 3400 3200 50  0001 L BNN "Campo6"
F 7 "DSPIC30F4013-20E/P" H 3400 3200 50  0001 L BNN "Campo7"
F 8 "PICmicro - dsPIC 16-bit Digital Signal Controllers 40LD 20MIPS 48 KB" H 3400 3200 50  0001 L BNN "Campo8"
	1    3400 3200
	1    0    0    -1  
$EndComp
$Comp
L Device:Crystal Y?
U 1 1 5BBC4BD5
P 10050 4400
F 0 "Y?" H 10050 4668 50  0000 C CNN
F 1 "Crystal" H 10050 4577 50  0000 C CNN
F 2 "" H 10050 4400 50  0001 C CNN
F 3 "~" H 10050 4400 50  0001 C CNN
	1    10050 4400
	1    0    0    -1  
$EndComp
$Comp
L Device:C C?
U 1 1 5BBC4D3E
P 9800 4550
F 0 "C?" H 9915 4596 50  0000 L CNN
F 1 "18pF" H 9915 4505 50  0000 L CNN
F 2 "" H 9838 4400 50  0001 C CNN
F 3 "~" H 9800 4550 50  0001 C CNN
	1    9800 4550
	1    0    0    -1  
$EndComp
$Comp
L Device:C C?
U 1 1 5BBC4DD0
P 10300 4550
F 0 "C?" H 10415 4596 50  0000 L CNN
F 1 "18pF" H 10415 4505 50  0000 L CNN
F 2 "" H 10338 4400 50  0001 C CNN
F 3 "~" H 10300 4550 50  0001 C CNN
	1    10300 4550
	1    0    0    -1  
$EndComp
$Comp
L Device:R R?
U 1 1 5BBFFB59
P 9850 5750
F 0 "R?" H 9920 5796 50  0000 L CNN
F 1 "R" H 9920 5705 50  0000 L CNN
F 2 "" V 9780 5750 50  0001 C CNN
F 3 "~" H 9850 5750 50  0001 C CNN
	1    9850 5750
	1    0    0    -1  
$EndComp
$Comp
L Switch:SW_DIP_x01 SW?
U 1 1 5BBFFC4F
P 10150 5450
F 0 "SW?" H 10150 5717 50  0000 C CNN
F 1 "SW_DIP_x01" H 10150 5626 50  0000 C CNN
F 2 "" H 10150 5450 50  0001 C CNN
F 3 "" H 10150 5450 50  0001 C CNN
	1    10150 5450
	1    0    0    -1  
$EndComp
Text Notes 9550 4150 0    50   ~ 0
Oscilador
$Comp
L power:GND #PWR?
U 1 1 5BC00119
P 9800 4700
F 0 "#PWR?" H 9800 4450 50  0001 C CNN
F 1 "GND" H 9805 4527 50  0000 C CNN
F 2 "" H 9800 4700 50  0001 C CNN
F 3 "" H 9800 4700 50  0001 C CNN
	1    9800 4700
	1    0    0    -1  
$EndComp
$Comp
L power:GND #PWR?
U 1 1 5BC00187
P 10300 4700
F 0 "#PWR?" H 10300 4450 50  0001 C CNN
F 1 "GND" H 10305 4527 50  0000 C CNN
F 2 "" H 10300 4700 50  0001 C CNN
F 3 "" H 10300 4700 50  0001 C CNN
	1    10300 4700
	1    0    0    -1  
$EndComp
Wire Notes Line
	9550 4050 9550 4950
Wire Notes Line
	9550 4950 10550 4950
Wire Notes Line
	10550 4950 10550 4050
Wire Notes Line
	10550 4050 9550 4050
Wire Wire Line
	9850 5600 9850 5450
$Comp
L power:GND #PWR?
U 1 1 5BC0035B
P 10450 5550
F 0 "#PWR?" H 10450 5300 50  0001 C CNN
F 1 "GND" H 10455 5377 50  0000 C CNN
F 2 "" H 10450 5550 50  0001 C CNN
F 3 "" H 10450 5550 50  0001 C CNN
	1    10450 5550
	1    0    0    -1  
$EndComp
$Comp
L power:VCC #PWR?
U 1 1 5BC003CE
P 9850 6000
F 0 "#PWR?" H 9850 5850 50  0001 C CNN
F 1 "VCC" H 9868 6173 50  0000 C CNN
F 2 "" H 9850 6000 50  0001 C CNN
F 3 "" H 9850 6000 50  0001 C CNN
	1    9850 6000
	-1   0    0    1   
$EndComp
Wire Wire Line
	10450 5550 10450 5450
Wire Wire Line
	9850 6000 9850 5900
Wire Wire Line
	9850 5450 9600 5450
Connection ~ 9850 5450
Text Label 9600 5450 0    50   ~ 0
MCLR
Text Label 1200 2400 0    50   ~ 0
MCLR
Wire Wire Line
	1400 2400 1200 2400
Wire Notes Line
	9550 5100 9550 6250
Wire Notes Line
	9550 6250 10550 6250
Wire Notes Line
	10550 6250 10550 5100
Wire Notes Line
	10550 5100 9550 5100
Text Notes 9600 5200 0    50   ~ 0
MCLR
Wire Wire Line
	10300 4400 10200 4400
Wire Wire Line
	9900 4400 9800 4400
$Comp
L Connector_Generic:Conn_01x03 J?
U 1 1 5BC017EB
P 1150 6900
F 0 "J?" V 1116 6712 50  0000 R CNN
F 1 "Conn_01x03" V 1025 6712 50  0000 R CNN
F 2 "" H 1150 6900 50  0001 C CNN
F 3 "~" H 1150 6900 50  0001 C CNN
	1    1150 6900
	0    -1   -1   0   
$EndComp
$Comp
L power:GND #PWR?
U 1 1 5BC01F89
P 1050 7100
F 0 "#PWR?" H 1050 6850 50  0001 C CNN
F 1 "GND" H 1055 6927 50  0000 C CNN
F 2 "" H 1050 7100 50  0001 C CNN
F 3 "" H 1050 7100 50  0001 C CNN
	1    1050 7100
	1    0    0    -1  
$EndComp
$Comp
L power:VCC #PWR?
U 1 1 5BC01FFF
P 1150 7300
F 0 "#PWR?" H 1150 7150 50  0001 C CNN
F 1 "VCC" H 1168 7473 50  0000 C CNN
F 2 "" H 1150 7300 50  0001 C CNN
F 3 "" H 1150 7300 50  0001 C CNN
	1    1150 7300
	-1   0    0    1   
$EndComp
Wire Wire Line
	1150 7300 1150 7100
Text Label 1250 7300 1    50   ~ 0
PWM1
Wire Wire Line
	1250 7100 1250 7300
Text Notes 850  6800 0    50   ~ 0
Servo #1, cámara
Wire Notes Line
	800  6700 1850 6700
Wire Notes Line
	1850 6700 1850 7550
Wire Notes Line
	1850 7550 800  7550
Wire Notes Line
	800  7550 800  6700
Wire Wire Line
	1400 3100 1200 3100
Text Label 1200 3100 0    50   ~ 0
PWM1
$Comp
L Connector_Generic:Conn_01x03 J?
U 1 1 5BC031A1
P 2300 6900
F 0 "J?" V 2266 6712 50  0000 R CNN
F 1 "Conn_01x03" V 2175 6712 50  0000 R CNN
F 2 "" H 2300 6900 50  0001 C CNN
F 3 "~" H 2300 6900 50  0001 C CNN
	1    2300 6900
	0    -1   -1   0   
$EndComp
$Comp
L power:GND #PWR?
U 1 1 5BC031A7
P 2200 7100
F 0 "#PWR?" H 2200 6850 50  0001 C CNN
F 1 "GND" H 2205 6927 50  0000 C CNN
F 2 "" H 2200 7100 50  0001 C CNN
F 3 "" H 2200 7100 50  0001 C CNN
	1    2200 7100
	1    0    0    -1  
$EndComp
$Comp
L power:VCC #PWR?
U 1 1 5BC031AD
P 2300 7300
F 0 "#PWR?" H 2300 7150 50  0001 C CNN
F 1 "VCC" H 2318 7473 50  0000 C CNN
F 2 "" H 2300 7300 50  0001 C CNN
F 3 "" H 2300 7300 50  0001 C CNN
	1    2300 7300
	-1   0    0    1   
$EndComp
Wire Wire Line
	2300 7300 2300 7100
Text Label 2400 7300 1    50   ~ 0
PWM2
Wire Wire Line
	2400 7100 2400 7300
Text Notes 2000 6800 0    50   ~ 0
Servo #2, ventilador\n
Wire Notes Line
	1950 6700 3000 6700
Wire Notes Line
	3000 6700 3000 7550
Wire Notes Line
	3000 7550 1950 7550
Wire Notes Line
	1950 7550 1950 6700
Text Label 1200 3200 0    50   ~ 0
PWM2
Wire Wire Line
	1400 3200 1200 3200
$Comp
L Connector_Generic:Conn_01x04 J?
U 1 1 5BC03DF4
P 3450 6900
F 0 "J?" V 3416 6612 50  0000 R CNN
F 1 "Conn_01x04" V 3325 6612 50  0000 R CNN
F 2 "" H 3450 6900 50  0001 C CNN
F 3 "~" H 3450 6900 50  0001 C CNN
	1    3450 6900
	0    -1   -1   0   
$EndComp
$Comp
L power:VCC #PWR?
U 1 1 5BC03E78
P 3650 7100
F 0 "#PWR?" H 3650 6950 50  0001 C CNN
F 1 "VCC" H 3668 7273 50  0000 C CNN
F 2 "" H 3650 7100 50  0001 C CNN
F 3 "" H 3650 7100 50  0001 C CNN
	1    3650 7100
	-1   0    0    1   
$EndComp
$Comp
L power:GND #PWR?
U 1 1 5BC03E95
P 3550 7300
F 0 "#PWR?" H 3550 7050 50  0001 C CNN
F 1 "GND" H 3555 7127 50  0000 C CNN
F 2 "" H 3550 7300 50  0001 C CNN
F 3 "" H 3550 7300 50  0001 C CNN
	1    3550 7300
	1    0    0    -1  
$EndComp
Wire Wire Line
	3550 7300 3550 7100
Wire Wire Line
	3450 7100 3450 7350
Wire Wire Line
	3350 7100 3350 7350
Text Label 3350 7350 1    50   ~ 0
TRIG1
Text Label 3450 7350 1    50   ~ 0
ECO1
Text Notes 3150 6800 0    50   ~ 0
Ultrasonido cámara
Wire Notes Line
	3100 6700 3100 7550
Wire Notes Line
	3100 7550 4250 7550
Wire Notes Line
	4250 7550 4250 6700
Wire Notes Line
	4250 6700 3100 6700
Text Label 5600 2200 2    50   ~ 0
TRIG1
Wire Wire Line
	5400 2200 5600 2200
Text Label 5600 1900 2    50   ~ 0
ECO1
Wire Wire Line
	5600 1900 5400 1900
Wire Wire Line
	9800 4400 9800 4150
Connection ~ 9800 4400
Wire Wire Line
	10300 4400 10300 4150
Connection ~ 10300 4400
Text Label 9800 4150 3    50   ~ 0
OSC1
Text Label 10300 4150 3    50   ~ 0
OSC2
Text Label 1200 2500 0    50   ~ 0
OSC1
Wire Wire Line
	1400 2500 1200 2500
Text Label 5600 2600 2    50   ~ 0
OSC2
Wire Wire Line
	5600 2600 5400 2600
Wire Wire Line
	1400 1900 1400 2000
Wire Wire Line
	1400 2100 1400 2000
Connection ~ 1400 2000
Wire Wire Line
	1400 2100 1400 2200
Connection ~ 1400 2100
Wire Wire Line
	1400 2000 1250 2000
$Comp
L power:VCC #PWR?
U 1 1 5BC0B12D
P 1250 2000
F 0 "#PWR?" H 1250 1850 50  0001 C CNN
F 1 "VCC" H 1267 2173 50  0000 C CNN
F 2 "" H 1250 2000 50  0001 C CNN
F 3 "" H 1250 2000 50  0001 C CNN
	1    1250 2000
	1    0    0    -1  
$EndComp
Wire Wire Line
	1400 4500 1400 4600
Wire Wire Line
	1400 4600 1400 4700
Connection ~ 1400 4600
Wire Wire Line
	1400 4700 1400 4800
Connection ~ 1400 4700
Wire Wire Line
	1400 4600 1250 4600
$Comp
L power:GND #PWR?
U 1 1 5BC0CA15
P 1250 4650
F 0 "#PWR?" H 1250 4400 50  0001 C CNN
F 1 "GND" H 1255 4477 50  0000 C CNN
F 2 "" H 1250 4650 50  0001 C CNN
F 3 "" H 1250 4650 50  0001 C CNN
	1    1250 4650
	1    0    0    -1  
$EndComp
Wire Wire Line
	1250 4600 1250 4650
$Comp
L Connector_Generic:Conn_01x03 J?
U 1 1 5BC0D81C
P 10150 950
F 0 "J?" V 10116 762 50  0000 R CNN
F 1 "Conn_01x03" V 10025 762 50  0000 R CNN
F 2 "" H 10150 950 50  0001 C CNN
F 3 "~" H 10150 950 50  0001 C CNN
	1    10150 950 
	0    -1   -1   0   
$EndComp
$Comp
L power:GND #PWR?
U 1 1 5BC0D8DB
P 9900 1150
F 0 "#PWR?" H 9900 900 50  0001 C CNN
F 1 "GND" H 9905 977 50  0000 C CNN
F 2 "" H 9900 1150 50  0001 C CNN
F 3 "" H 9900 1150 50  0001 C CNN
	1    9900 1150
	1    0    0    -1  
$EndComp
Wire Wire Line
	10150 1150 10150 1350
Wire Wire Line
	10250 1150 10250 1350
Text Label 10150 1350 1    50   ~ 0
RX1
Text Label 10250 1350 1    50   ~ 0
TX1
Wire Wire Line
	10050 1150 9900 1150
Text Notes 9850 850  0    50   ~ 0
UART1, Raspberry\n
Wire Notes Line
	9800 1400 9800 750 
Wire Notes Line
	9800 750  10850 750 
Wire Notes Line
	10850 750  10850 1400
Wire Notes Line
	10850 1400 9800 1400
Text Label 5550 3100 2    50   ~ 0
TX1
Wire Wire Line
	5550 3100 5400 3100
Wire Wire Line
	5550 3000 5400 3000
Text Label 5550 3000 2    50   ~ 0
RX1
$EndSCHEMATC
